<?xml version="1.0" encoding="utf-8"?>
<!--Generator: Adobe Illustrator 23.0.0, SVG Export Plug-In . SVG Version: 6.00 Build 0)-->
<svg version="1.1" id="Capa_1" xmlns="http://www.w3.org/2000/svg" xmlns:xlink="http://www.w3.org/1999/xlink" x="0px" y="0px" viewBox="0 0 252.6 149" style="enable-background:new 0 0 252.6 149" xml:space="preserve">
    <style type="text/css">
        .st0{fill:#ff1e2f}.st1{fill:#fff}.st2{fill:#766d66}.st4{fill:#7c7c7c}
    </style>
    <g>
        <g>
            <path class="st0" d="M21.1,70.9c-4.4,0-8-1.5-10.1-4.1c-1.3-1.7-2.6-4.6-1.6-9c1-4.2,3.4-7.5,6.9-9.7c-0.8-0.1-1.6-0.5-2.1-1.2
			c-0.6-0.8-0.7-1.8-0.4-2.7c4.6-13.4,17-13.4,21.7-13.4c3.6,0,10.2,0.6,13.5,4.8c1.2,1.5,2.5,4.2,1.5,8.3l-4.2,17.6
			c-0.2,1-0.3,1.6-0.3,1.9c1,0.7,1.5,1.9,1.2,3.2L47,67.8c-0.3,1.3-1.5,2.3-2.9,2.3H33.9c-1.1,0-2.1-0.6-2.6-1.5
			C28.7,69.9,25.4,70.9,21.1,70.9z M24.9,58.8c0.1,0,0.4,0.1,0.6,0.1c2.5,0,5.5-1.3,6.7-3.2c-0.7,0.1-1.4,0.2-2.2,0.3
			c-4,0.6-4.8,1.3-5.1,2.6C24.9,58.7,24.9,58.7,24.9,58.8z M32.7,43.6c-1.6,0-2.5,0.4-3.1,0.9l4.1-0.5c0.5-0.1,0.9-0.2,1.1-0.2
			C34.5,43.6,33.8,43.6,32.7,43.6z"/>
            <path class="st1" d="M35.5,33.7c5.1,0,14,1.4,12.2,9.4l-4.1,17.6c-0.9,3.8-0.2,4.7,0.9,5.1l-0.3,1.3H33.9c-0.2-1.5-0.2-2,0-3.8
			c-2.6,2-6.3,4.7-12.8,4.7c-5.4,0-10.3-2.8-8.8-9.5c1.5-6.3,6.7-9.6,13-10.4l8.8-1.2c1.5-0.2,3.5-0.7,3.9-2.6
			c0.8-3.6-2.9-3.8-5.4-3.8c-4.8,0-6.2,2.6-6.9,4.5h-9.2C20.1,35.1,28.1,33.7,35.5,33.7 M36.4,51.3c-1.1,0.7-2.8,1.2-6.9,1.8
			c-3.7,0.5-6.8,1.3-7.6,4.9c-0.7,3,1.6,3.9,3.5,3.9c4.2,0,9.1-2.4,10-6.4L36.4,51.3 M35.5,27.7c-4.8,0-19.2,0-24.5,15.4
			c-0.6,1.7-0.4,3.5,0.5,5c-2.4,2.4-4.1,5.4-4.9,9C5.3,62.7,7,66.5,8.8,68.7c2.7,3.4,7.1,5.3,12.4,5.3c3.9,0,7-0.8,9.5-1.8
			c0.9,0.6,2,0.9,3.2,0.9h10.2c2.8,0,5.2-1.9,5.8-4.6l0.3-1.3c0.4-1.7,0-3.5-1-4.9c0-0.1,0-0.1,0-0.2l4.2-17.6
			c1.2-5.2-0.5-8.8-2.1-10.8C47.3,28.5,39.7,27.7,35.5,27.7L35.5,27.7z"/>
        </g>
        <path class="st0" d="M205.5,84.9c-2.4-4.3-6.3-7.8-11.3-9.5l-1.9-0.7c0,0,0,0.1-0.1,0.1c-1.4,2.1-2.9,4.1-4.4,6
		c-26.2,33.1-69.9,47.8-110.1,33.6c-18.5-6.7-33.8-18.5-44.8-33.6c11.4,20.8,29.8,37.5,53.4,45.8c42.4,15,88.6-1.2,115.6-36.9
		c2.8,3.6,4.6,7.9,5.1,12.5C209.2,96.3,208.4,90,205.5,84.9"/>
        <g>
            <path class="st0" d="M89.3,70.1c-0.9,0-1.8-0.4-2.3-1.1s-0.8-1.7-0.6-2.6l4.7-19.7c0.4-1.7,0.2-2.5,0.1-2.6c0,0-0.3-0.1-0.8-0.1
			c-2,0-4.2,0.5-5.1,4.3l-4.7,19.5c-0.3,1.3-1.5,2.3-2.9,2.3h-9.5c-0.9,0-1.8-0.4-2.3-1.1s-0.8-1.7-0.6-2.6l4.6-19.6
			c0.2-0.7,0.5-2.1,0.4-2.7c-0.2-0.1-0.6-0.2-1.6-0.2c-1.8,0-3.6,0.5-4.5,4l-4.7,19.9c-0.3,1.3-1.5,2.3-2.9,2.3h-9.5
			c-0.9,0-1.8-0.4-2.3-1.1s-0.8-1.7-0.6-2.6l7.7-32.5c0.3-1.4,1.5-2.3,2.9-2.3h9.1c0.9,0,1.8,0.4,2.3,1.1c2.5-1.3,5.2-2,8.3-2
			c4.3,0,7.3,1.1,9.4,3.6c2.3-1.8,5.7-3.6,10.2-3.6c4.9,0,8.9,1.6,11.2,4.5c1.4,1.8,2.9,5.1,1.8,10.1l-5.3,22.5
			c-0.3,1.3-1.5,2.3-2.9,2.3L89.3,70.1L89.3,70.1z"/>
            <path class="st1" d="M94.1,33.7c7.1,0,11.7,3.7,10,10.9l-5.3,22.5h-9.5L94,47.4c1.1-4.8-0.9-6.4-3.6-6.4c-4.8,0-7.1,2.8-8,6.7
			l-4.6,19.5h-9.5l4.5-19.7c0.7-2.8,1.6-6.6-4.1-6.6c-4.5,0-6.6,2.8-7.4,6.3L56.6,67h-9.5l7.7-32.4h9.1l-1.1,4.8h0.1
			c1.7-2.1,5.2-5.6,11.6-5.6c5.2,0,7.2,1.7,8.8,5.2C84.9,37.3,88.4,33.7,94.1,33.7 M63.9,34.6L63.9,34.6 M94.1,27.7
			c-4.1,0-7.4,1.3-9.9,2.8c-2.5-1.9-5.7-2.8-9.8-2.8c-2.3,0-5,0.3-7.9,1.5c-0.7-0.4-1.7-0.6-2.6-0.6l0,0h-9.1
			c-2.8,0-5.2,1.9-5.8,4.6l-7.7,32.5c-0.4,1.8,0,3.7,1.1,5.1s2.9,2.3,4.7,2.3h9.5c2.7,0,5.1-1.8,5.8-4.5c0.2,0.8,0.6,1.5,1.1,2.2
			c1.1,1.4,2.9,2.3,4.7,2.3h9.5c2.7,0,5.1-1.8,5.8-4.5c0.2,0.8,0.6,1.5,1.1,2.2c1.1,1.4,2.9,2.3,4.7,2.3h9.5c2.8,0,5.2-1.9,5.8-4.6
			l5.3-22.5c1.5-6.2-0.4-10.3-2.3-12.6C104.7,29.7,100,27.7,94.1,27.7L94.1,27.7z"/>
        </g>
        <g>
            <path class="st0" d="M103.3,70.1c-0.9,0-1.8-0.4-2.3-1.1s-0.8-1.7-0.6-2.6l7.7-32.5c0.2-0.7,0.6-1.3,1.2-1.8
			c-0.3-0.6-0.4-1.4-0.3-2.1l1.9-7.9c0.3-1.4,1.5-2.3,2.9-2.3h9.5c0.9,0,1.8,0.4,2.3,1.1s0.8,1.7,0.6,2.5l-1.9,7.9
			c-0.2,0.7-0.6,1.3-1.2,1.8c0.3,0.6,0.4,1.4,0.3,2.1l-7.7,32.6c-0.3,1.3-1.5,2.3-2.9,2.3C112.8,70.1,103.3,70.1,103.3,70.1z"/>
            <path class="st1" d="M123.2,22.8l-1.9,7.9h-9.5l1.9-7.9H123.2 M120.5,34.6l-7.7,32.5h-9.5l7.7-32.5H120.5 M123.2,16.8h-9.5
			c-2.8,0-5.2,1.9-5.8,4.6l-1.9,7.9c-0.2,0.7-0.2,1.3-0.1,2c-0.4,0.6-0.6,1.2-0.8,1.9l-7.7,32.5c-0.4,1.8,0,3.7,1.1,5.1
			s2.9,2.3,4.7,2.3h9.5c2.8,0,5.2-1.9,5.8-4.6l7.7-32.5c0.2-0.7,0.2-1.3,0.1-2c0.3-0.6,0.6-1.2,0.8-1.9l1.9-7.9
			c0.4-1.8,0-3.7-1.1-5.1C126.8,17.6,125.1,16.8,123.2,16.8L123.2,16.8z M123.2,28.8L123.2,28.8L123.2,28.8L123.2,28.8z M120.5,40.6
			L120.5,40.6L120.5,40.6L120.5,40.6z"/>
        </g>
        <g>
            <path class="st2" d="M117.8,70.1c-0.9,0-1.8-0.4-2.3-1.1s-0.8-1.7-0.6-2.6l7.7-32.4c0.3-1.4,1.5-2.3,2.9-2.3H142
			c5.6,0,8.5,2.2,10,4.1c1.4,1.8,2.9,5,1.6,10c-1,4.4-5.9,12.7-16.9,12.7h-6.3l-2.2,9.4c-0.3,1.3-1.5,2.3-2.9,2.3L117.8,70.1
			L117.8,70.1z M136.4,46.8c3.3,0,3.6-1.5,3.9-2.7c0.1-0.2,0.1-0.4,0.1-0.5c-0.3-0.1-1.1-0.3-2.7-0.3h-3.6l-0.8,3.5
			C133.2,46.8,136.4,46.8,136.4,46.8z"/>
            <path class="st1" d="M141.9,34.6c7,0,10.2,4,8.7,10.4c-0.7,2.9-4.3,10.3-13.9,10.3h-8.6L125.3,67h-7.5l7.7-32.4H141.9 M129.4,49.8
			h7c5.6,0,6.5-3.6,6.8-5.1c0.8-3.2-0.9-4.5-5.6-4.5h-6L129.4,49.8 M141.9,28.7h-16.5c-2.8,0-5.2,1.9-5.8,4.6l-7.7,32.4
			c-0.4,1.8,0,3.7,1.1,5.1s2.9,2.3,4.7,2.3h7.5c2.8,0,5.2-1.9,5.8-4.6l1.7-7.1h3.9c12.9,0,18.6-9.8,19.8-15
			c1.5-6.2-0.4-10.3-2.2-12.5C152.4,31.5,148.7,28.7,141.9,28.7L141.9,28.7z"/>
        </g>
        <g>
            <path class="st2" d="M167.4,70.1c-1.5,0-2.8-1.2-3-2.7l-0.4-4h-8.9l-3.2,5.3c-0.5,0.9-1.5,1.4-2.6,1.4h-7.9
			c-1.1,0-2.1-0.6-2.6-1.6s-0.5-2.1,0.1-3l20.5-32.4c0.6-0.9,1.5-1.4,2.5-1.4h8.7c1.5,0,2.7,1.1,3,2.5l5,32.4
			c0.1,0.9-0.1,1.8-0.7,2.4c-0.6,0.7-1.4,1.1-2.3,1.1C175.6,70.1,167.4,70.1,167.4,70.1z M162.5,51.8l-0.1-0.8l-0.5,0.8H162.5z"/>
            <path class="st1" d="M170.5,34.6l5,32.4h-8.2l-0.7-6.7h-13.3l-4.1,6.7h-7.9l20.5-32.4H170.5 M156.7,54.8h9.2L164.5,42h-0.1
			L156.7,54.8 M170.5,28.7h-8.7c-2.1,0-4,1-5.1,2.8l-20.5,32.4c-1.2,1.8-1.2,4.2-0.2,6.1c1.1,1.9,3.1,3.1,5.3,3.1h7.9
			c2.1,0,4-1.1,5.1-2.9l2.3-3.8h4.6l0.1,1.3c0.3,3,2.9,5.3,6,5.3h8.2c1.8,0,3.4-0.8,4.6-2.1s1.6-3.1,1.4-4.8l-5-32.4
			C176,30.8,173.5,28.7,170.5,28.7L170.5,28.7z"/>
        </g>
        <g>
            <path class="st2" d="M190.1,70.9c-6.7,0-11.4-1.7-14-5c-2-2.5-2.6-5.9-1.8-9.6c0.3-1.3,1.5-2.3,2.9-2.3h5.3
			c-1.5-0.8-2.7-1.8-3.6-3.2c-1.3-2.1-1.6-4.7-0.9-7.8c1.4-5.9,7.2-12.3,19.1-12.3c5.8,0,10,1.6,12.5,4.8c2,2.5,2.8,6,2,9.4
			c-0.3,1.4-1.5,2.3-2.9,2.3h-3.9c1.6,0.8,3,1.9,4,3.4c1.3,2,1.5,4.5,0.9,7.3C207.5,67.5,198.1,70.9,190.1,70.9z M187.1,55.7
			c0.3,0.6,0.4,1.3,0.3,2c-0.1,0.3-0.1,0.7,0.1,0.9c0.2,0.3,1.2,0.8,3.4,0.8c1.1,0,4.5-0.1,5.4-1.5c-0.8-0.3-2.3-0.7-3.1-0.8
			l-3.7-0.8C188.7,56.1,187.9,55.9,187.1,55.7z M191.2,43.6c0.2,0.1,0.4,0.1,0.6,0.1l7,1.6c-0.2-0.4-0.2-0.9-0.2-1.4
			c0-0.2,0.1-0.8-0.1-1c0,0-0.6-0.6-3.2-0.6C193.4,42.4,191.8,42.9,191.2,43.6z"/>
            <path class="st1" d="M197.2,33.8c11,0,12.5,6.5,11.6,10.5h-7.2c0.1-1.4,0.4-4.9-6.2-4.9c-2.9,0-6.5,1-7.2,3.9
			c-0.6,2.5,1.6,3.1,3,3.4l8.3,1.9c4.7,1.1,8.8,2.9,7.4,8.7c-2.3,9.8-13.6,10.6-16.7,10.6c-13.1,0-13.8-6.8-12.8-10.8h7.2
			c-0.4,1.8-0.2,5.2,6.4,5.2c3.6,0,7.7-0.8,8.5-4.2c0.6-2.5-1.9-3.2-5.6-4l-3.7-0.8c-5.5-1.2-10.9-2.4-9.2-9.5
			C181.8,40.2,185.5,33.8,197.2,33.8 M197.2,27.8c-13.7,0-20.4,7.5-22.1,14.6c-0.8,3.4-0.6,6.4,0.6,8.9c-2.1,0.6-3.8,2.2-4.3,4.4
			c-1.1,4.5-0.2,8.9,2.3,12.1c3.2,4,8.7,6.1,16.3,6.1c8.7,0,19.9-4,22.6-15.2c0.8-3.5,0.5-6.5-1-9.2c1.5-0.8,2.6-2.2,2.9-3.9
			c1-4.3,0-8.7-2.6-11.9C209.9,31,205.6,27.8,197.2,27.8L197.2,27.8z"/>
        </g>
        <g>
            <path class="st2" d="M221.5,70.9c-6.7,0-11.4-1.7-14-5c-2-2.5-2.6-5.9-1.8-9.6c0.3-1.3,1.5-2.3,2.9-2.3h5.3
			c-1.5-0.8-2.7-1.8-3.6-3.2c-1.3-2.1-1.6-4.7-0.9-7.8c1.4-5.9,7.2-12.3,19.1-12.3c5.8,0,10,1.6,12.5,4.8c2,2.5,2.8,6,2,9.4
			c-0.3,1.4-1.5,2.3-2.9,2.3h-3.9c1.6,0.8,3,1.9,4,3.4c1.3,2,1.5,4.5,0.9,7.3C238.9,67.5,229.5,70.9,221.5,70.9z M218.5,55.7
			c0.3,0.6,0.4,1.3,0.3,2c-0.1,0.3-0.1,0.7,0.1,0.9c0.2,0.3,1.2,0.8,3.4,0.8c1.1,0,4.5-0.1,5.4-1.5c-0.8-0.3-2.3-0.7-3.1-0.8
			l-3.7-0.8C220.1,56.1,219.3,55.9,218.5,55.7z M222.6,43.6c0.2,0.1,0.4,0.1,0.6,0.1l7,1.6c-0.2-0.4-0.2-0.9-0.2-1.4
			c0-0.2,0.1-0.8-0.1-1c0,0-0.6-0.6-3.2-0.6C224.8,42.4,223.2,42.9,222.6,43.6z"/>
            <path class="st1" d="M228.6,33.8c11,0,12.5,6.5,11.6,10.5H233c0.1-1.4,0.4-4.9-6.2-4.9c-2.9,0-6.5,1-7.2,3.9
			c-0.6,2.5,1.6,3.1,3,3.4l8.3,1.9c4.7,1.1,8.8,2.9,7.4,8.7c-2.3,9.8-13.6,10.6-16.7,10.6c-13.1,0-13.8-6.8-12.9-10.8h7.2
			c-0.4,1.8-0.2,5.2,6.4,5.2c3.6,0,7.7-0.8,8.5-4.2c0.6-2.5-1.9-3.2-5.6-4l-3.7-0.8c-5.5-1.2-10.9-2.4-9.2-9.5
			C213.2,40.2,216.9,33.8,228.6,33.8 M228.6,27.8c-13.7,0-20.4,7.5-22.1,14.6c-0.8,3.4-0.6,6.4,0.6,8.9c-2.1,0.6-3.8,2.2-4.3,4.4
			c-1.1,4.5-0.2,8.8,2.3,12.1c3.2,4.1,8.7,6.1,16.4,6.1c8.7,0,19.9-4,22.6-15.2c0.8-3.5,0.5-6.5-1-9.2c1.5-0.8,2.6-2.2,2.9-3.9
			c1-4.3,0-8.7-2.6-11.9C241.2,31,236.9,27.8,228.6,27.8L228.6,27.8z"/>
        </g>
    </g>
    <g>
        <g>
            <g>
                <path class="st0" d="M21.1,73.5c-5.1,0-9.4-1.8-12-5.1c-1.6-2-3.4-5.6-2.1-11.1c0.9-3.6,2.6-6.7,5.1-9.1l0,0
				c-1-1.4-1.3-3.3-0.7-5c5.1-15.1,19.3-15.1,24-15.1c4.1,0,11.5,0.7,15.5,5.7c1.6,2,3.2,5.4,2.1,10.4c0,0-4.1,18.1-4.1,18.2
				c1,1.3,1.4,2.9,1,4.6l-0.3,1.3c-0.6,2.5-2.8,4.3-5.4,4.3H33.9c-1.2,0-2.2-0.4-3.1-1C28.3,72.7,25.1,73.5,21.1,73.5z"/>
                <path class="st1" d="M35.3,33.6c5.1,0,14,1.4,12.2,9.4l-4,17.7c-0.9,3.8-0.2,4.7,0.9,5.1l-0.3,1.3H33.9c-0.2-1.5-0.2-2,0-3.8
				c-2.6,2-6.3,4.7-12.8,4.7c-5.4,0-10.3-2.8-8.8-9.5c1.5-6.3,6.7-9.6,13-10.4l8.8-1.2c1.5-0.2,3.5-0.7,3.9-2.6
				c0.8-3.6-2.9-3.8-5.4-3.8c-4.8,0-6.2,2.6-6.9,4.5h-9.2C19.9,35,27.9,33.6,35.3,33.6 M36.4,51.3c-1.1,0.7-2.8,1.2-6.9,1.8
				c-3.7,0.5-6.8,1.3-7.6,4.9c-0.7,3,1.6,3.9,3.5,3.9c4.2,0,9.1-2.4,10-6.4L36.4,51.3 M35.3,22.6c-4,0-10,0.3-15.6,3
				c-6.4,3.1-11.1,8.5-13.6,15.8c-0.6,1.8-0.7,3.8-0.4,5.7c-1.9,2.6-3.3,5.5-4.1,8.8V56c-1.3,6-0.2,11.6,3.2,15.9
				c3.6,4.5,9.6,7.1,16.3,7.1c3.7,0,6.8-0.6,9.4-1.4c1.1,0.3,2.2,0.5,3.4,0.5h10.2c5.1,0,9.6-3.5,10.7-8.5l0.3-1.3
				c0.5-2.3,0.3-4.6-0.5-6.7l3.7-16.2c1.3-5.6,0.1-10.9-3.2-15C49.9,24,41.5,22.6,35.3,22.6L35.3,22.6z"/>
            </g>
        </g>
        <path d="M205.5,84.9c-2.4-4.3-6.3-7.8-11.3-9.5l-1.9-0.7c0,0,0,0.1-0.1,0.1c-1.4,2.1-2.9,4.1-4.4,6
		c-26.2,33.1-69.9,47.8-110.1,33.6c-18.5-6.7-33.8-18.5-44.8-33.6c11.4,20.8,29.8,37.5,53.4,45.8c42.4,15,88.6-1.2,115.6-36.9
		c2.8,3.6,4.6,7.9,5.1,12.5C209.2,96.3,208.4,90,205.5,84.9" style="fill:#ff1e2f;stroke:#fff;stroke-width:20;stroke-linecap:round;stroke-linejoin:round;stroke-miterlimit:10"/>
        <g>
            <g>
                <path class="st0" d="M68.3,72.7c-1.7,0-3.3-0.8-4.3-2.1c-1-1.3-1.4-3-1.1-4.7l4.4-19.2c-0.3,0.3-0.5,0.8-0.7,1.6l-4.6,20
				c-0.6,2.5-2.8,4.2-5.4,4.2h-9.5c-1.7,0-3.3-0.8-4.3-2.1c-1-1.3-1.4-3-1-4.7l7.7-32.4c0.6-2.5,2.8-4.2,5.4-4.2H64
				c1,0,1.9,0.3,2.7,0.7c2.8-1.2,5.6-1.5,7.9-1.5c4.1,0,7.3,0.9,9.7,2.9c2.5-1.5,5.8-2.9,10-2.9c5.7,0,10.4,1.9,13.1,5.4
				c1.8,2.3,3.6,6.2,2.2,12.2l-5.4,22.4c-0.6,2.5-2.8,4.2-5.3,4.2h-9.5c-1.7,0-3.3-0.8-4.3-2.1c-1-1.3-1.4-3-1-4.7l4.4-18.5
				c-0.2,0.4-0.4,0.9-0.6,1.7l-4.6,19.5c-0.6,2.5-2.8,4.2-5.4,4.2L68.3,72.7L68.3,72.7z"/>
                <path class="st1" d="M94.2,33.8c7.1,0,11.7,3.7,10,10.9l-5.4,22.4h-9.5L94,47.4c1.1-4.8-0.9-6.4-3.6-6.4c-4.8,0-7.1,2.8-8,6.7
				l-4.6,19.5h-9.5l4.5-19.7c0.7-2.8,1.6-6.6-4.1-6.6c-4.5,0-6.6,2.8-7.4,6.3L56.6,67h-9.5l7.7-32.4h9.1l-1.1,4.8h0.1
				c1.7-2.1,5.2-5.6,11.6-5.6c5.2,0,7.2,1.7,8.8,5.2C84.9,37.4,88.4,33.8,94.2,33.8 M63.9,34.6L63.9,34.6 M94.2,22.8
				c-3.8,0-7.1,0.9-9.7,2c-2.8-1.4-6.1-2-10-2c-2.3,0-5,0.3-7.8,1.2c-0.9-0.2-1.8-0.4-2.8-0.4l0,0h-9.1c-5.1,0-9.5,3.5-10.7,8.5
				l-7.7,32.4c-0.8,3.3,0,6.7,2.1,9.4c2.1,2.6,5.3,4.2,8.6,4.2h9.5c2.1,0,4-0.6,5.7-1.6c1.8,1.2,3.9,1.8,6,1.8h9.5
				c2.1,0,4.1-0.6,5.8-1.7c1.7,1,3.6,1.6,5.7,1.6h9.5c5.1,0,9.5-3.5,10.7-8.4l5.4-22.4c0,0,0,0,0-0.1c1.5-6.4,0.3-12.4-3.2-16.9
				C107.8,25.5,101.6,22.8,94.2,22.8L94.2,22.8z"/>
            </g>
        </g>
        <g>
            <g>
                <path class="st0" d="M103.3,72.6c-1.7,0-3.3-0.8-4.3-2.1c-1-1.3-1.4-3-1-4.7l7.7-32.5c0.2-0.7,0.4-1.3,0.8-1.8
				c-0.1-0.7-0.1-1.4,0.1-2.1l1.9-7.9c0.6-2.5,2.8-4.2,5.3-4.2h9.5c1.7,0,3.3,0.8,4.3,2.1c1,1.3,1.4,3.1,1,4.7l-1.9,7.9
				c-0.2,0.7-0.4,1.3-0.8,1.8c0.1,0.7,0.1,1.4-0.1,2.1l-7.7,32.5c-0.6,2.5-2.8,4.2-5.4,4.2H103.3z"/>
                <path class="st1" d="M123.3,22.8l-1.9,7.9h-9.5l1.9-7.9H123.3 M120.5,34.6l-7.7,32.5h-9.5l7.7-32.5H120.5 M123.3,11.8h-9.5
				c-5.1,0-9.5,3.5-10.7,8.4l-1.9,7.9c-0.2,0.7-0.3,1.4-0.3,2.1c-0.3,0.6-0.5,1.2-0.6,1.8l-7.7,32.5c-0.8,3.3,0,6.7,2.1,9.4
				s5.3,4.2,8.6,4.2h9.5c5.1,0,9.5-3.5,10.7-8.5l7.7-32.5c0.2-0.7,0.3-1.4,0.3-2.1c0.3-0.6,0.5-1.2,0.6-1.8l1.9-7.9
				c0.8-3.3,0-6.7-2.1-9.4C129.9,13.4,126.7,11.8,123.3,11.8L123.3,11.8z M120.5,45.6L120.5,45.6L120.5,45.6L120.5,45.6z"/>
            </g>
        </g>
        <g>
            <g>
                <path class="st2" d="M117.8,72.6c-1.7,0-3.3-0.8-4.3-2.1c-1-1.3-1.4-3-1-4.7l7.7-32.4c0.6-2.5,2.8-4.2,5.4-4.2H142
				c6.6,0,10.1,2.7,11.9,5c1.8,2.2,3.5,6.1,2.1,12.2c-1.2,5.1-6.8,14.5-19.3,14.5h-4.3l-1.9,7.5c-0.6,2.5-2.8,4.2-5.3,4.2H117.8z"/>
                <path class="st1" d="M142,34.7c7,0,10.2,4,8.7,10.4c-0.7,2.9-4.3,10.3-13.9,10.3h-8.6l-2.9,11.7h-7.5l7.7-32.4L142,34.7
				 M136.4,49.8c5.6,0,6.5-3.6,6.8-5.1c0.8-3.2-0.9-4.5-5.6-4.5h-6l-2.3,9.5C129.4,49.8,136.4,49.8,136.4,49.8 M142,23.7h-16.5
				c-5.1,0-9.5,3.5-10.7,8.5l-7.7,32.4c-0.8,3.3,0,6.7,2.1,9.4c2.1,2.6,5.3,4.2,8.6,4.2h7.5c5.1,0,9.5-3.4,10.7-8.4l0.8-3.3
				c13.8,0,22.4-9.7,24.6-18.7c0,0,0,0,0-0.1c1.5-6.4,0.4-12.4-3.2-16.8C154.6,26.2,148.9,23.7,142,23.7L142,23.7z"/>
            </g>
        </g>
        <g>
            <g>
                <path class="st2" d="M167.4,72.6c-2.8,0-5.2-2.1-5.5-4.9l-0.2-1.8h-5.3L154,70c-1,1.6-2.8,2.6-4.7,2.6h-7.9c-2,0-3.9-1.1-4.8-2.8
				c-1-1.8-0.9-3.9,0.2-5.6l20.5-32.4c1-1.6,2.8-2.6,4.6-2.6h8.7c2.7,0,5,2,5.4,4.7l5,32.4c0.2,1.6-0.2,3.2-1.3,4.4
				c-1,1.2-2.6,1.9-4.2,1.9H167.4z"/>
                <path class="st1" d="M170.6,34.7l5,32.4h-8.2l-0.7-6.7h-13.3l-4.1,6.7h-7.9l20.5-32.4L170.6,34.7 M156.7,54.8h9.2L164.5,42h-0.1
				L156.7,54.8 M170.6,23.7h-8.7c-3.8,0-7.3,1.9-9.3,5.1l-20.5,32.4c-2.1,3.4-2.3,7.7-0.3,11.2c1.9,3.5,5.6,5.7,9.6,5.7h7.9
				c3.6,0,7-1.8,9-4.7c2,2.9,5.3,4.7,9.1,4.7h8.2c3.2,0,6.3-1.4,8.4-3.8c2.1-2.4,3-5.7,2.5-8.8l-5-32.4
				C180.7,27.7,176.1,23.7,170.6,23.7L170.6,23.7z"/>
            </g>
        </g>
        <g>
            <g>
                <path class="st2" d="M190.1,73.4c-7.5,0-12.9-2-16-6c-2.5-3.2-3.2-7.3-2.1-11.7c0.5-2.2,2.3-3.7,4.4-4.1
				c-1.4-2.6-1.7-5.6-0.9-9.2c0.8-3.4,4.9-14.2,21.5-14.2c8.2,0,12.4,3.1,14.5,5.7c2.5,3.1,3.4,7.3,2.5,11.5
				c-0.4,1.7-1.6,3.1-3.1,3.8c0,0,0,0.1,0.1,0.1c1.6,2.6,2,5.7,1.1,9.2C209.6,69.5,199.1,73.4,190.1,73.4z"/>
                <path class="st1" d="M197.1,33.8c11,0,12.5,6.5,11.6,10.5h-7.2c0.1-1.4,0.4-4.9-6.2-4.9c-2.9,0-6.5,1-7.2,3.9
				c-0.6,2.5,1.6,3.1,3,3.4l8.3,1.9c4.7,1.1,8.8,2.9,7.4,8.7c-2.3,9.8-13.6,10.6-16.7,10.6c-13.1,0-13.8-6.8-12.8-10.8h7.2
				c-0.4,1.8-0.2,5.2,6.4,5.2c3.6,0,7.7-0.8,8.5-4.2c0.6-2.5-1.9-3.2-5.6-4l-3.7-0.8c-5.5-1.2-10.9-2.4-9.2-9.5
				C181.8,40.2,185.4,33.8,197.1,33.8 M197.1,22.8c-16.4,0-24.7,9.5-26.9,18.3v0.1c-0.7,3-0.7,5.6-0.4,7.8c-1.5,1.4-2.6,3.3-3.2,5.4
				c-1.5,5.9-0.3,11.9,3.1,16.4c4.2,5.4,11,8.1,20.3,8.1c10.6,0,24.1-5,27.4-19.1c0.9-3.6,0.7-6.6,0-9c0.9-1.2,1.6-2.6,1.9-4.1
				c1.3-5.8,0-11.7-3.6-16.1C213.1,27,207.5,22.8,197.1,22.8L197.1,22.8z"/>
            </g>
        </g>
        <g>
            <g>
                <path class="st2" d="M221.5,73.4c-7.4,0-12.8-2-15.9-5.9c-2.5-3.1-3.3-7.3-2.3-11.6c0.5-2.2,2.3-3.9,4.6-4.2
				c-1.4-2.6-1.7-5.6-0.9-9.1c0.8-3.4,4.9-14.2,21.5-14.2c8.2,0,12.4,3.1,14.5,5.7c2.5,3.1,3.4,7.3,2.5,11.5
				c-0.4,1.7-1.6,3.1-3.1,3.8c0,0,0,0.1,0.1,0.1c1.6,2.6,2,5.7,1.1,9.2C241,69.5,230.5,73.4,221.5,73.4z"/>
                <path class="st1" d="M228.5,33.8c11,0,12.5,6.5,11.6,10.5h-7.2c0.1-1.4,0.4-4.9-6.2-4.9c-2.9,0-6.5,1-7.2,3.9
				c-0.6,2.5,1.6,3.1,3,3.4l8.3,1.9c4.7,1.1,8.8,2.9,7.4,8.7c-2.3,9.8-13.6,10.6-16.7,10.6c-13.1,0-13.8-6.8-12.9-10.8h7.3
				c-0.4,1.8-0.2,5.2,6.4,5.2c3.6,0,7.7-0.8,8.5-4.2c0.6-2.5-1.9-3.2-5.6-4l-3.7-0.8c-5.5-1.2-10.9-2.4-9.2-9.5
				C213.2,40.2,216.8,33.8,228.5,33.8 M228.5,22.8c-16.4,0-24.7,9.5-26.9,18.3v0.1c-0.7,3-0.7,5.5-0.4,7.7c-1.6,1.5-2.8,3.5-3.3,5.7
				c-1.4,6-0.1,11.8,3.4,16.3c4.2,5.3,11,7.9,20.2,7.9c10.6,0,24.1-5,27.4-19.1c0.9-3.6,0.7-6.6,0-9c0.9-1.2,1.6-2.6,1.9-4.1
				c1.3-5.8,0-11.7-3.6-16.1C244.5,27,238.9,22.8,228.5,22.8L228.5,22.8z"/>
            </g>
        </g>
    </g>
    <g>
        <g>
            <path class="st0" d="M43.5,60.7c-0.9,3.8-0.2,4.7,0.9,5.1l-0.3,1.3H33.9c-0.2-1.5-0.2-2,0-3.8c-2.6,2-6.3,4.7-12.8,4.7
			c-5.4,0-10.3-2.8-8.8-9.5c1.5-6.3,6.7-9.6,13-10.4l8.8-1.2c1.5-0.2,3.5-0.7,3.9-2.6c0.8-3.6-2.9-3.8-5.4-3.8
			c-4.8,0-6.2,2.6-6.9,4.5h-9.2c3.4-10,11.4-11.4,18.8-11.4c5.1,0,14,1.4,12.2,9.4L43.5,60.7z M36.4,51.3c-1.1,0.7-2.8,1.2-6.9,1.8
			c-3.7,0.5-6.8,1.3-7.6,4.9c-0.7,3,1.6,3.9,3.5,3.9c4.2,0,9.1-2.4,10-6.4L36.4,51.3z"/>
        </g>
        <path class="st0" d="M205.5,84.9c-2.4-4.3-6.3-7.8-11.3-9.5l-1.9-0.7c0,0,0,0.1-0.1,0.1c-1.4,2.1-2.9,4.1-4.4,6
		c-26.2,33.1-69.9,47.8-110.1,33.6c-18.5-6.7-33.8-18.5-44.8-33.6c11.4,20.8,29.8,37.5,53.4,45.8c42.4,15,88.6-1.2,115.6-36.9
		c2.8,3.6,4.6,7.9,5.1,12.5C209.2,96.3,208.4,90,205.5,84.9"/>
        <g>
            <path class="st0" d="M98.8,67.1h-9.5L94,47.4c1.1-4.8-0.9-6.4-3.6-6.4c-4.8,0-7.1,2.8-8,6.7l-4.6,19.5h-9.5l4.5-19.7
			c0.7-2.8,1.6-6.6-4.1-6.6c-4.5,0-6.6,2.8-7.4,6.3L56.6,67h-9.5l7.7-32.4h9.1l-1.1,4.8h0.1c1.7-2.1,5.2-5.6,11.6-5.6
			c5.2,0,7.2,1.7,8.8,5.2c1.6-1.6,5.1-5.2,10.9-5.2c7.1,0,11.7,3.7,10,10.9L98.8,67.1z"/>
        </g>
        <g>
            <path class="st0" d="M120.5,34.6l-7.7,32.5h-9.5l7.7-32.5H120.5z M121.4,30.7h-9.5l1.9-7.9h9.5L121.4,30.7z"/>
        </g>
        <g>
            <path class="st4" d="M125.3,67.1h-7.5l7.7-32.4H142c7,0,10.2,4,8.7,10.4c-0.7,2.9-4.3,10.3-13.9,10.3h-8.6L125.3,67.1z
			 M136.4,49.8c5.6,0,6.5-3.6,6.8-5.1c0.8-3.2-0.9-4.5-5.6-4.5h-6l-2.3,9.5C129.4,49.8,136.4,49.8,136.4,49.8z"/>
        </g>
        <g>
            <path class="st4" d="M149.3,67.1h-7.9l20.5-32.4h8.7l5,32.4h-8.2l-0.7-6.7h-13.3L149.3,67.1z M156.7,54.8h9.2L164.5,42h-0.1
			L156.7,54.8z"/>
        </g>
        <g>
            <path class="st4" d="M184.5,57.1c-0.4,1.8-0.2,5.2,6.4,5.2c3.6,0,7.7-0.8,8.5-4.2c0.6-2.5-1.9-3.2-5.6-4l-3.7-0.8
			c-5.5-1.2-10.9-2.4-9.2-9.5c0.9-3.6,4.5-10,16.2-10c11,0,12.5,6.5,11.6,10.5h-7.2c0.1-1.4,0.4-4.9-6.2-4.9c-2.9,0-6.5,1-7.2,3.9
			c-0.6,2.5,1.6,3.1,3,3.4l8.3,1.9c4.7,1.1,8.8,2.9,7.4,8.7c-2.3,9.8-13.6,10.6-16.7,10.6c-13.1,0-13.8-6.8-12.8-10.8L184.5,57.1
			L184.5,57.1z"/>
        </g>
        <g>
            <path class="st4" d="M215.9,57.1c-0.4,1.8-0.2,5.2,6.4,5.2c3.6,0,7.7-0.8,8.5-4.2c0.6-2.5-1.9-3.2-5.6-4l-3.7-0.8
			c-5.5-1.2-10.9-2.4-9.2-9.5c0.9-3.6,4.5-10,16.2-10c11,0,12.5,6.5,11.6,10.5h-7.2c0.1-1.4,0.4-4.9-6.2-4.9c-2.9,0-6.5,1-7.2,3.9
			c-0.6,2.5,1.6,3.1,3,3.4l8.3,1.9c4.7,1.1,8.8,2.9,7.4,8.7c-2.3,9.8-13.6,10.6-16.7,10.6c-13.1,0-13.8-6.8-12.9-10.8L215.9,57.1
			L215.9,57.1z"/>
        </g>
    </g>
    <polygon class="st1" points="148.3,103.5 181.6,83.1 183.3,74.7 175.6,70.1 33.9,73.1 66,99.8 100.4,113 148,106.3 "/>
</svg>
