<?xml version="1.0" encoding="utf-8"?>
<!-- Generator: Adobe Illustrator 25.2.1, SVG Export Plug-In . SVG Version: 6.00 Build 0)  -->
<svg version="1.1" id="Layer_1" xmlns="http://www.w3.org/2000/svg" xmlns:xlink="http://www.w3.org/1999/xlink" x="0px" y="0px"
	 viewBox="0 0 283.5 283.5" style="enable-background:new 0 0 283.5 283.5;" xml:space="preserve">
<style type="text/css">
	.st0{fill:#F05A00;}
	.st1{fill:#F05A00;stroke:#000000;stroke-width:15;stroke-linecap:round;stroke-miterlimit:10;}
</style>
<g>
	<g>
		<path class="st0" d="M271.6,129.9c-6.5,0-11.8,5.3-11.8,11.8c0,65.1-53,118.1-118.1,118.1s-118.1-53-118.1-118.1
			s53-118.1,118.1-118.1c31.7,0,61.5,12.4,83.8,34.9c4.6,4.6,12.1,4.7,16.7,0.1c4.6-4.6,4.7-12.1,0.1-16.7
			C215.5,14.9,179.8,0,141.7,0C63.6,0,0,63.6,0,141.7s63.6,141.7,141.7,141.7s141.7-63.6,141.7-141.7
			C283.5,135.2,278.2,129.9,271.6,129.9z"/>
	</g>
</g>
<path class="st0" d="M140.8,213.8c-5.8,0-10.5-4.7-10.5-10.5v-75.5c0-5.8,4.7-10.5,10.5-10.5s10.5,4.7,10.5,10.5v75.5
	C151.3,209.1,146.6,213.8,140.8,213.8z"/>
<path class="st1" d="M140.8,158"/>
<path class="st0" d="M140.8,100.5c-7.7,0-13.9-6.2-13.9-13.9s6.2-13.9,13.9-13.9s13.9,6.2,13.9,13.9S148.5,100.5,140.8,100.5z
	 M140.8,85.5c-0.6,0-1.1,0.5-1.1,1.1s0.5,1.1,1.1,1.1c0.6,0,1.1-0.5,1.1-1.1S141.5,85.5,140.8,85.5z"/>
</svg>
