<?xml version="1.0" encoding="utf-8"?>
<!-- Generator: Adobe Illustrator 25.2.1, SVG Export Plug-In . SVG Version: 6.00 Build 0)  -->
<svg version="1.1" id="Layer_1" xmlns="http://www.w3.org/2000/svg" xmlns:xlink="http://www.w3.org/1999/xlink" x="0px" y="0px"
	 viewBox="0 0 283.5 283.5" style="enable-background:new 0 0 283.5 283.5;" xml:space="preserve">
<style type="text/css">
	.st0{fill:#DB0000;}
</style>
<g>
	<g>
		<path class="st0" d="M271.6,129.9c-6.5,0-11.8,5.3-11.8,11.8c0,65.1-53,118.1-118.1,118.1s-118.1-53-118.1-118.1
			s53-118.1,118.1-118.1c31.7,0,61.5,12.4,83.8,34.9c4.6,4.6,12.1,4.7,16.7,0.1c4.6-4.6,4.7-12.1,0.1-16.7
			C215.5,14.9,179.8,0,141.7,0C63.6,0,0,63.6,0,141.7s63.6,141.7,141.7,141.7s141.7-63.6,141.7-141.7
			C283.5,135.2,278.2,129.9,271.6,129.9z"/>
	</g>
</g>
<path class="st0" d="M156.5,141.7l30.7-30.7c1.9-1.9,3-4.5,3-7.2s-1.1-5.3-3-7.2c-1.9-1.9-4.5-3-7.2-3c-2.7,0-5.2,1.1-7.2,3
	l-30.7,30.7l-30.7-30.7c-4-3.9-10.4-3.9-14.3,0c-1.9,1.9-3,4.5-3,7.2s1.1,5.3,3,7.2l30.7,30.7l-30.7,30.7c-1.9,1.9-3,4.5-3,7.2
	s1.1,5.3,3,7.2c1.9,1.9,4.5,3,7.2,3c2.7,0,5.3-1.1,7.2-3l30.7-30.7l30.7,30.7c1.9,1.9,4.5,3,7.2,3c2.7,0,5.3-1.1,7.2-3
	c1.9-1.9,3-4.5,3-7.2s-1.1-5.3-3-7.2L156.5,141.7z"/>
</svg>
